Generalized Measurement Models: Modeling Observed Data
…
Examining Latent Variables

# A tibble: 177 × 10
   variable     mean  median    sd   mad     q5   q95  rhat ess_bulk ess_tail
   <chr>       <dbl>   <dbl> <dbl> <dbl>  <dbl> <dbl> <dbl>    <dbl>    <dbl>
 1 theta[1]  -0.0112 -0.0124 0.246 0.241 -0.420 0.388  1.00  5428.     4806. 
 2 theta[2]  -0.762  -1.41   1.35  0.402 -1.92  1.74   1.53     7.12     27.3
 3 theta[3]  -0.850  -1.58   1.49  0.420 -2.11  1.92   1.53     7.12     28.2
 4 theta[4]   0.461   0.827  0.847 0.387 -1.15  1.29   1.53     7.10     28.2
 5 theta[5]  -0.0161 -0.0148 0.249 0.252 -0.424 0.384  1.01   884.     4643. 
 6 theta[6]   0.486   0.871  0.892 0.395 -1.21  1.36   1.53     7.12     26.9
 7 theta[7]   0.170   0.238  0.390 0.368 -0.562 0.721  1.45     7.77     26.8
 8 theta[8]   0.0254  0.0241 0.247 0.248 -0.380 0.433  1.03   111.     3910. 
 9 theta[9]   0.389   0.674  0.730 0.396 -1.00  1.15   1.53     7.11     26.5
10 theta[10] -0.0232 -0.0241 0.247 0.249 -0.431 0.381  1.01   924.     4544. 
# ℹ 167 more rows
…
